[
  {
    "id": "1",
    "price": "1000000",
    "location": "Saratov",
    "address": "Kirova 10",
    "square": "42"
  },
  {
    "id": "2",
    "price": "2000000",
    "location": "Saratov",
    "address": "Rahova 52",
    "square": "40"
  },
  {
    "id": "3",
    "price": "3000000",
    "location": "Saratov",
    "address": "Rabochaya 13",
    "square": "12"
  }
]